<svg xmlns="http://www.w3.org/2000/svg" xmlns:xlink="http://www.w3.org/1999/xlink" width="1920" height="1080" viewBox="0 0 1920 1080">
  <defs>
    <clipPath id="clip-horizontalLayout_V9">
      <rect width="1920" height="1080"/>
    </clipPath>
  </defs>
  <g id="horizontalLayout_V9" clip-path="url(#clip-horizontalLayout_V9)">
    <g id="Background_1st_Half_-_2nd_Half_" data-name="Background 1st (Half) - 2nd (Half)" transform="translate(9 -3)">
      <g id="purpleBackground">
        <path id="Path_80" data-name="Path 80" d="M0-154.556C57.75-212.306,231,0,231,0V231S57.75,433.587,0,375.837c-19.3-19.3-30.926-108.087,0-173.629,18.2-38.569,86.6-39.513,87.356-84.1C88.106,74.057,20.947,59.792,0,19.772-28.524-34.724-15.588-138.968,0-154.556Z" transform="translate(824 418)" fill="#54a1af"/>
        <path id="Path_56" data-name="Path 56" d="M-965.1,40.328h0l977.554.018,33.183.01s972.082,1080.027-3.222,1083.532l-102.708.369-549.991-3.874-354.555.15h0c-36.676-42.584-22.568-317.644-.208-412.06S-895,580.382-895,580.382s-50.167-44.114-70.1-128.09S-1005.852,81.084-965.1,40.328Z" transform="translate(1870 -40.382)" fill="#570b98"/>
        <g id="Dot">
          <circle id="Ellipse_31" data-name="Ellipse 31" cx="66" cy="66" r="66" transform="translate(1018 42)" fill="#7016bf"/>
          <circle id="Ellipse_32" data-name="Ellipse 32" cx="52" cy="52" r="52" transform="translate(1632 767)" fill="#7016bf"/>
          <circle id="Ellipse_34" data-name="Ellipse 34" cx="73.5" cy="73.5" r="73.5" transform="translate(1055 606)" fill="#7016bf"/>
        </g>
      </g>
    </g>
    <g id="section1_Part1" data-name="section1 Part1" transform="translate(45 43)">
      <path id="Path_78" data-name="Path 78" d="M0,0H302c21.944,22.227-25.612,51.071-94.348,65.224-38,7.824-94.1-4.367-120.978,12.1C19.492,118.476,94.119,197.37,0,213Z" transform="translate(-45 -43)" fill="#54a1af"/>
      <path id="Path_79" data-name="Path 79" d="M0,213H302c21.944-22.227-25.612-51.071-94.348-65.224-38-7.824-94.1,4.367-120.978-12.1a66.856,66.856,0,0,1-19.836-17.94C58.954,106.818,56.093,94.664,54.8,82.15,51.143,46.74,60.921,10.117,0,0Z" transform="translate(-45 824)" fill="#54a1af"/>
    </g>
  </g>
</svg>
